 {
    "actions": [
      {
        "name": "JOB_CREATE",
        "validStates": [
          "JobCreated"
        ]
      },
      {
        "name": "JOB_APPROVE",
        "validStates": [
          "JobApproved",
          "JobCreated"
        ]
      },
      {
        "name": "JOB_PROCESS",
        "validStates": [
          "JobProcessed"
        ]
      },
      {
        "name": "JOB_CLOSE",
        "validStates": [
          "JobClosed"
        ]
      }
    ],
    "Comment": "Job WorkFlow in Amazon States Language using an AWS Lambda Function",
    "startAt": "CreateJob",
    "states": [
      {
        "name": "JobCreated"
      },
      {
        "name": "JobApproved"
      },
      {
        "name": "JobProcessed"
      },
      {
        "end": true,
        "name": "JobClosed"
      },
      {
        "end": true,
        "name": "fallback"
      }
    ],
    "transitions": [
      {
        "event": "JOB_CREATE",
        "fromStates": [
          "JobCreated"
        ],
        "toState": "JobApproved"
      },
      {
        "event": "JOB_CREATE_ERROR",
        "fromStates": [
          "JobCreated"
        ],
        "toState": "fallback"
      },
      {
        "event": "JOB_APPROVE",
        "fromStates": [
          "JobApproved"
        ],
        "toState": "JobProcessed"
      },
      {
        "event": "JOB_APPROVE_ERROR",
        "fromStates": [
          "JobApproved"
        ],
        "toState": "fallback"
      },
      {
        "event": "JOB_PROCESS",
        "fromStates": [
          "JobProcessed"
        ],
        "toState": "JobClosed"
      },
      {
        "event": "JOB_PROCESS_ERROR",
        "fromStates": [
          "JobProcessed"
        ],
        "toState": "JobClosed"
      }
    ]
  }
