{
  "taskTokenTableName" : "TASK_TOKENS",
  "jobTableName" : "Job",
  "applicationTableName" : "Applications",
  "taskTokenActivityWorker" : "TaskTokenActivityWorker",
  "eventTableName" : "Events",
  "workFlowTableName":"Workflow",
  "statesActivityArnMappingTableName":"StateActivityArns",
  "activityArnTableName":"ACTIVITY_ARNS",
  "metadata":"Metadata"
}